{
  "main" : {
    "title" : {
      "ko" : "메인",
      "en" : ""
    },
    "state" : "완료",
    "link" : "main",
    "children" : {}
  },
  "aboutus" : {
    "view" : true,
    "title" : {
      "ko" : "회사소개",
      "en" : "About Us"
    },
    "state" : "",
    "link" : "",
    "children" : {
      "회사소개" : {
        "view" : true,
        "state" : "완료",
        "link" : "aboutus_01"
      },
      "회사연혁" : {
        "view" : true,
        "state" : "완료",
        "link" : "aboutus_02"
      },
      "조직도" : {
        "view" : true,
        "state" : "완료",
        "link" : "aboutus_03"
      },
      "오시는길" : {
        "view" : true,
        "state" : "완료",
        "link" : "aboutus_04",
        "etc" : "지도x"
      },
      "파트너사" : {
        "view" : true,
        "state" : "완료",
        "link" : "aboutus_05"
      }
    }
  },
  "business" : {
    "view" : true,
    "title" : {
      "ko" : "사업내용",
      "en" : "Business"
    },
    "state" : "",
    "link" : "",
    "children" : {
      "시스템통합(SI)" : {
        "view" : true,
        "state" : "",
        "link" : "",
        "children" : {
          "시스템통합" : {
            "view" : true,
            "state" : "",
            "link" : "business_0101"
          },
          "보험분야" : {
            "view" : true,
            "state" : "",
            "link" : "business_0102"
          },
          "공공분야" : {
            "view" : true,
            "state" : "",
            "link" : "business_0103"
          },
          "제조·서비스" : {
            "view" : true,
            "state" : "",
            "link" : "business_0104"
          }
        }
      },
      "IT 아웃소싱" : {
        "view" : true,
        "state" : "",
        "link" : "business_02"
      },
      "사업실적" : {
        "view" : true,
        "state" : "",
        "link" : "business_03"
      }
    }
  },
  "solution" : {
    "view" : true,
    "title" : {
      "ko" : "솔루션",
      "en" : "Solution"
    },
    "state" : "",
    "link" : "",
    "children" : {
      "SIFP 2017" : {
        "view" : true,
        "state" : "",
        "link" : "solution_01"
      },
      "SW 원격배포" : {
        "view" : true,
        "state" : "",
        "link" : "solution_02"
      }
    }
  },
  "recruit" : {
    "view" : true,
    "title" : {
      "ko" : "채용정보",
      "en" : "Recruit"
    },
    "state" : "",
    "link" : "",
    "children" : {
      "인재상" : {
        "view" : true,
        "state" : "완료",
        "link" : "recruit_01"
      },
      "복리후생" : {
        "view" : true,
        "state" : "완료",
        "link" : "recruit_02"
      },
      "채용안내" : {
        "view" : true,
        "state" : "완료",
        "link" : "recruit_03"
      }
    }
  }
}